%YAML 1.1
%TAG !u! tag:unity3d.com,2011:
--- !u!114 &11400000
MonoBehaviour:
  m_ObjectHideFlags: 0
  m_CorrespondingSourceObject: {fileID: 0}
  m_PrefabInstance: {fileID: 0}
  m_PrefabAsset: {fileID: 0}
  m_GameObject: {fileID: 0}
  m_Enabled: 1
  m_EditorHideFlags: 0
  m_Script: {fileID: 11500000, guid: ae078c8d77599f54aab16254917d6fc6, type: 3}
  m_Name: FrameworkConfig
  m_EditorClassIdentifier: 
  _name: 
  _dontStartFramework: 0
  _gameManagerTypeName: FDefaultGameManager
  _gameManagerConfigBundleName: 
  _gameManagerConfigAssetName: 
  _buildType: 0
  _log: 1
  _logWarning: 1
  _logError: 1
  _logException: 1
  _currentGameUniqueSymbol: 
  _assetBundleSimulation: 0
  _backendSymbol: 
  _subsystemsEnableState: 01010101010101
  _subsystemsName:
  - FDebug
  - EventSystem
  - FPoolingSystem
  - SaveSystem
  - StateSystem
  - Util
  - FResourceManagement
  _subsystemsFullName:
  - Revy.Framework.FDebug, Revy.Framework, Version=0.0.0.0, Culture=neutral, PublicKeyToken=null
  - Revy.Framework.EventSystem, Revy.Framework, Version=0.0.0.0, Culture=neutral,
    PublicKeyToken=null
  - Revy.Framework.FPoolingSystem, Revy.Framework, Version=0.0.0.0, Culture=neutral,
    PublicKeyToken=null
  - Revy.Framework.SaveSystem, Revy.Framework, Version=0.0.0.0, Culture=neutral, PublicKeyToken=null
  - Revy.Framework.StateSystem, Revy.Framework, Version=0.0.0.0, Culture=neutral,
    PublicKeyToken=null
  - Revy.Framework.Util, Revy.Framework, Version=0.0.0.0, Culture=neutral, PublicKeyToken=null
  - Revy.Framework.ResourceManagement.FResourceManagement, Revy.Framework, Version=0.0.0.0,
    Culture=neutral, PublicKeyToken=null
  _gameSystemsEnableState: 
  _gameSystemsName: []
  _gameSystemsFullName: []
