{
    "name": "XRider.Managers",
    "references": [
        "GUID:4aa49da2f85fb4049887d4902752f196"
    ],
    "optionalUnityReferences": [],
    "includePlatforms": [
        "Android"
    ],
    "excludePlatforms": [],
    "allowUnsafeCode": false,
    "overrideReferences": false,
    "precompiledReferences": [],
    "autoReferenced": true,
    "defineConstraints": [],
    "versionDefines": []
}